{
  "projects": [
    {
      "id": "ZPWsvspiDl",
      "path": "C:\\Users\\ahmad\\.vue-cli-ui\\PA_Kelompok_PWL",
      "favorite": 0,
      "type": "vue",
      "name": "pa_kelompok_pwl",
      "openDate": 1623201094809
    }
  ],
  "foldersFavorite": [],
  "tasks": [],
  "config": {
    "lastOpenProject": "ZPWsvspiDl"
  }
}